^D:\LESSON_17\LESSON_17\LESSON_17\LESSON_17.CPP
D:\LESSON_17\LESSON_17\LESSON_17\DEBUG\VC142.PDB
D:\LESSON_17\LESSON_17\LESSON_17\DEBUG\VC142.IDB
D:\LESSON_17\LESSON_17\LESSON_17\DEBUG\LESSON_17.OBJ
